0,1,1,077,Bessemer,3112 Morgan Road,,Bessemer,AL,35022,scott griggs,,,,chuck clement,205/428-9381,,chuck.clement@truteam.com,,205/428-9381,,,,,,,,,,,,,,
0,1,1,260,Decatur,241 Beltline Road NW,,Decatur,AL,35601,scott griggs,,,,Matthew Rubelsky,256/350-3311,,Matthew.Rubelsky@mascocs.com,,256/350-3311,,,,,,,,,,,,,,
0,1,1,075,Dothan,824 S. Foster Street,,Dothan,AL,36301,scott griggs,,,,John Croom,334/793-1449,,kerry.croom@mascocs.com,,334/793-1449,,,,,,,,,,,,,,
0,1,1,007,Mobile,2609 Old Shell Road,,Mobile,AL,36607,scott griggs,,,,Daniel Haas,251/471-3311,,Dan.Haas@mascocs.com,,251/471-3311,,,,,,,,,,,,,,
0,1,1,709,Sherwood,4300 Rixey Road,,Sherwood,AR,72117,scott griggs,,,,Christopher Cowdery,501/834-3840,,Chris.Cowdery@mascocs.com,,501/834-3840,,,,,,,,,,,,,,
0,1,1,715,Dover,37 Ridgely Street,,Dover,DE,19904,Andrew Polanco,,,,Adam Profitt,302/678-1782,,Adam.Profitt@mascocs.com,,302/678-1782,,,,,,,,,,,,,,
0,1,1,034,Alachua,13450 NW 104th Terrace,,Alachua,FL,32615,William White,,,,David Schimmelpfenning,,,Jerome.Schimmelpfenning@truteam.com,,,,,,,,,,,,,,,,
0,1,1,005,Brooksville,3250 Air Commerce Blvd.,,Brooksville,FL,34609,William White,,,,Lori Betters,352/799-0051,,Lori.Betters@mascocs.com,,352/799-0051,,,,,,,,,,,,,,
0,1,1,488,Ft. Myers,14970 Technology Ct,,Ft. Myers,FL,33912-4420,William White,,,,Jeffrey Krestancic,239/495-0344,,Jeff.Krestancic@mascocs.com,,239/495-0344,,,,,,,,,,,,,,
0,1,1,037,Ft. Pierce,3601 Crossroads Parkway Unit A,,Ft. Pierce,FL,34945,William White,,,,David Fiene,772/465-9191,,Dave.Fiene@mascocs.com,,772/465-9191,,,,,,,,,,,,,,
0,1,1,062,Ft. Walton Beach,30 Ready Ave NW,,Ft. Walton Beach,FL,32548,William White,,,,Kelly Erdmann,850/302-0000,,Kelly.Erdmann@mascocs.com,,850/302-0000,,,,,,,,,,,,,,
0,1,1,035,Jacksonville,5808 Mining Terrace,,Jacksonville,FL,32257,William White,,,,Brian Betters,904/448-1696,,john.finnegan@truteam,,904/448-1696,,,,,,,,,,,,,,
0,1,1,010,Miami Gardens,5261 N.W. 161st Street,,Miami Gardens,FL,33014,William White,,,,David Fiene,305/625-4520,,Dave.Fiene@mascocs.com,,305/625-4520,,,,,,,,,,,,,,
0,1,1,080,New Smyrna Beach,1150 Turnbull Bay Rd.,,New Smyrna Beach,FL,32168,William White,,,,Brian Betters,386/253-3455,,john.finnegan@truteam.com,,386/253-3455,,,,,,,,,,,,,,
0,1,1,011,Ocala,4331 SE 53rd Avenue,,Ocala,FL,34480,William White,,,,David Schimmelpfenning,352/622-8663,,Jerome.S@mascocs.com,,352/622-8663,,,,,,,,,,,,,,
0,1,1,045,Oldsmar,200 Stevens Ave.,,Oldsmar,FL,34677,William White,,,,Mark Jackson,813/855-4671,,Mark.Jackson@mascocs.com,,813/855-4671,,,,,,,,,,,,,,
0,1,1,065,Panama City,1742 Sherman Ave,,Panama City,FL,32405,William White,,,,Shawn Mallord,850/769-1696,,Shawn.Mallord@mascocs.com,,850/769-1696,,,,,,,,,,,,,,
0,1,1,061,Pensacola,8006 Pittman Blvd.,,Pensacola,FL,32534,William White,,,,Willie Morrell Jr,850/476-7778,,Bill.Morrell@mascocs.com,,850/476-7778,,,,,,,,,,,,,,
0,1,1,503,Riviera Beach,3679 Prospect Ave,,Riviera Beach,FL,33404-3455,William White,,,,David Fiene,,,Dave.Fiene@mascocs.com,,,,,,,,,,,,,,,,
0,1,1,043,Winter Park,6825 Stapoint Court,,Winter Park,FL,32792,William White,,,,John Feigel,407/678-9451,,John.Feigel@mascocs.com,,407/678-9451,,,,,,,,,,,,,,
0,1,1,074,Atlanta,2160 Hills Ave Ste D,,Atlanta,GA,30318-2806,William White,,,,Reginald Lopes,770/428-1835,,reginald.lopes@mascocs.com,,770/428-1835,,,,,,,,,,,,,,
0,1,1,668,Louisville,11201 Plantside Dr,,Louisville,KY,40299-6115,Stephen Toeppner,,,,Frank Bruno,502/964-6510,,frank.bruno@mascocs.com,,502/964-6510,,,,,,,,,,,,,,
0,1,1,660,Danvers,4 Charter St,,Danvers,MA,1923,Andrew Polanco,,,,Donald Burnett,978/777-0629,,don.burnett@mascocs.com,,978/777-0629,,,,,,,,,,,,,,
0,1,1,665,Milford,2 Industrial Road,,Milford,MA,1757,Andrew Polanco,,,,Lucas Benson,508/966-3590,,lucas.benson@mascocs.com,,508/966-3590,,,,,,,,,,,,,,
0,1,1,629,Glen Burnie,"1901 Park 100 Drive, Suite 200",,Glen Burnie,MD,21061,Jeffrey Beck,,,,Johnnie Santiago,410/242-7785,,Johnnie.Santiago@mascocs.com,,410/242-7785,,,,,,,,,,,,,,
0,1,1,645,Hagerstown,1120 D Business Center Dr.,,Hagerstown,MD,21740,Jeffrey Beck,,,,Michael Emerson,301/745-5100,,Mike.Emerson@mascocs.com,,301/745-5100,,,,,,,,,,,,,,
0,1,1,640,La Plata,9295 W&W Industrial Drive,,La Plata,MD,20646,Jeffrey Beck,,,,Mark Rollins,301/870-3525,,mark.rollins@mascocs.com,,301/870-3525,,,,,,,,,,,,,,
0,1,1,733,Upper Marlboro,"551 Commerce Drive, Ste D",,Upper Marlboro,MD,20774,Jeffrey Beck,,,,Stanley White,301/627-1800,,stan.white@mascocs.com,,301/627-1800,,,,,,,,,,,,,,
0,1,1,510,Bangor,121 C Target Industrial Cir,,Bangor,ME,04401-5717,Andrew Polanco,,,,Jeremiah Brown,,,JERRY.BROWN2@MASCOCS.COM,,,,,,,,,,,,,,,,
0,1,1,676,Yarmouth,65 Downeast Drive,,Yarmouth,ME,4096,Andrew Polanco,,,,Jeremiah Brown,207/846-7745,,JERRY.BROWN2@MASCOCS.COM,,207/846-7745,,,,,,,,,,,,,,
0,1,1,637,Durham,2425 Kiss Drive,,Durham,NC,27704,Thomas Metzger,,,,Lavern Holbrook,919/688-6333,,Steve.Holbrook@mascocs.com,,919/688-6333,,,,,,,,,,,,,,
0,1,1,696,Greensboro,2909 Manufacturers Road,,Greensboro,SC,27406,Thomas Metzger,,,,Rickey Peed,336/373-0099,,Ric.Peed@mascocs.com,,336/373-0099,,,,,,,,,,,,,,
0,1,1,695,Monroe,4804 East Fork Lane,,Monroe,NC,28110,Thomas Metzger,,,,Daniel Allen,704/292-1990,,danny.allen@mascocs.com,,704/292-1990,,,,,,,,,,,,,,
0,1,1,700,Wilson,1901 Herring Ave NE,,Wilson,NC,27893,Thomas Metzger,,,,Roy Burris,252/243-4999,,DAVID.BURRIS@mascocs.com,,252/243-4999,,,,,,,,,,,,,,
0,1,1,663,Meredith,1 Pease Road,,Meredith,NH,3253,Andrew Polanco,,,,Duncan Simons,603/279-3371,,Duncan.Simons@mascocs.com,,603/279-3371,,,,,,,,,,,,,,
0,1,1,675,Nashua,110 Perimeter Rd,,Nashua,NH,3063,Andrew Polanco,,,,Michael Benson,603/889-6647,,michael.benson2@mascocs.com,,603/889-6647,,,,,,,,,,,,,,
0,1,1,674,Portsmouth,360 Constitution Ave,,Portsmouth,NH,3801,Andrew Polanco,,,,David Bombria,603/436-7788,,David.Bombria@mascocs.com,,603/436-7788,,,,,,,,,,,,,,
0,1,1,609,Barrington,66 E Gloucester Pike,,Barrington,NJ,8007,Andrew Polanco,,,,Douglas Sorantino,856/547-0911,,Douglas.Sorantino@mascocs.com,,856/547-0911,,,,,,,,,,,,,,
0,1,1,777,Hamilton,3A Marlen Drive,,Hamilton,NJ,8691,Dale Camany,,,,Steven Hay,609/890-0036,,Steven.Hay@mascocs.com,,609/890-0036,,,,,,,,,,,,,,
0,1,1,493,Albany,"7 Interstate Ave, Ste B",,Albany,NY,12205,Andrew Polanco,,,,Christopher Lutgens,,,chris.lutgens@mascocs.com,,,,,,,,,,,,,,,,
0,1,1,654,Bohemia,165-C Orville Drive,,Bohemia,NY,11716,Andrew Polanco,,,,Andrew Polanco,631/218-9350,,Andrew.Polanco@mascocs.com,,631/218-9350,,,,,,,,,,,,,,
0,1,1,616,Brewster,3635 Danbury Road,,Brewster,NY,10509,Andrew Polanco,,,,James Lukacs,203/775-1268,,james.lukacs@mascocs.com,,203/775-1268,,,,,,,,,,,,,,
0,1,1,627,Barto,153 Lenape Road,,Barto,PA,19504,Andrew Polanco,,,,Anthony OBrien,610/845-2021,,anthony.obrien@mascocs.com,,610/845-2021,,,,,,,,,,,,,,
0,1,1,626,Bristol,7900 N. Radcliffe St. Bldg #105,,Bristol,PA,19007,Andrew Polanco,,,,Andrew Short,215/946-4609,,Andrew.Short@mascocs.com,,215/946-4609,,,,,,,,,,,,,,
0,1,1,689,Gibsonia,17 Frontier Drive,,Gibsonia,PA,15044-8950,Jeffrey Beck,,,,Jonathan Show,724/444-4300,,Jonathan.Show@mascocs.com,,724/444-4300,,,,,,,,,,,,,,
0,1,1,685,Middletown,150 Fulling Mill Road,,Middletown,PA,17057,Jeffrey Beck,,,,Brian Livesay,717/944-0437,,brian.livesay@mascocs.com,,717/944-0437,,,,,,,,,,,,,,
0,1,1,686,Port Matilda,150 Debra Lane,,Port Matilda,PA,16870,Jeffrey Beck,,,,Jonathan Show,,,Jonathan.Show@mascocs.com,,,,,,,,,,,,,,,,
0,1,1,093,Columbia,1 Sunbelt Ct,,Columbia,SC,29203,William White,,,,Paul Pietro,803/796-8660,,Paul.Pietro@mascocs.com,,803/796-8660,,,,,,,,,,,,,,
0,1,1,708,Conway,700 Century Circle,,Conway,SC,29526,William White,,,,Brian Burton,843/347-4559,,brian.burton@mascocs.com,,843/347-4559,,,,,,,,,,,,,,
0,1,1,148,Hardeeville,5678 Speedway Blvd,,Hardeeville,SC,29927,William White,,,,Scott Griggs,843/784-5677,,Scott.Griggs@mascocs.com,,843/784-5677,,,,,,,,,,,,,,
0,1,1,028,Piedmont,1800 Piedmont Hwy,,Piedmont,SC,29673,William White,,,,Casey Dare,864/299-5501,,casey.dare@mascocs.com,,864/299-5501,,,,,,,,,,,,,,
0,1,1,632,Alcoa,3479 Northbend Circle Suite G,,Alcoa,TN,37701,Thomas Metzger,,,,William Wilson,865/970-2600,,Bill.Wilson@mascocs.com,,865/970-2600,,,,,,,,,,,,,,
0,1,1,634,Antioch,2111 Antioch Pike,,Antioch,TN,37013,Thomas Metzger,,,,Everett Plunkett,615/331-2367,,Logan.Plunkett@mascocs.com,,615/331-2367,,,,,,,,,,,,,,
0,1,1,711,Memphis,6101 Discover Drive,,Memphis,TN,38141-8236,Thomas Metzger,,,,Greg Forsythe,662/890-6950,,greg.forsythe@mascocs.com,,662/890-6950,,,,,,,,,,,,,,
0,1,1,702,Chesapeake,905 Executive Court,,Chesapeake,VA,23320,Jeffrey Beck,,,,Frederick Shelor,757/547-1700,,fred.shelor@mascocs.com,,757/547-1700,,,,,,,,,,,,,,
0,1,1,464,Manassas,7477 Mason King Court,,Manassas,VA,20109,Jeffrey Beck,,,,Stanley White,703/369-6373,,stan.white@mascocs.com,,703/369-6373,,,,,,,,,,,,,,
0,1,1,614,Winchester,360 Tyson Drive,,Winchester,VA,22603,Jeffrey Beck,,,,Michael Emerson,540/667-0109,,Mike.Emerson@mascocs.com,,540/667-0109,,,,,,,,,,,,,,
0,1,1,511,White River Junction,52 Lower Hyde Park,,White River Junction,VT,05001-6092,Andrew Polanco,,,,Duncan Simons,,,Duncan.Simons@mascocs.com,,,,,,,,,,,,,,,,
0,1,1,617,Meriden,45 Golden Street,,Meriden,CT,06450,David Bombria ,,,,Paul Collins,203/235-7981,,paul.collins@mascocs.com,,203/235-7981,,,,,,,,,,,,,,
0,1,1,620,Norwalk,155 Woodward Avenue,,Norwalk,CT,06854,David Bombria ,,,,Ravi Siddappa,203/854-5767,,Ravi.siddappa@mascocs.com,,203/854-5767,,,,,,,,,,,,,,
0,1,1,662,Taftville,505 Norwich Ave,,Taftville,CT,06380,David Bombria ,,,,John Caisse,860/886-2638,,John.Caisse@mascocs.com,,860/886-2638,,,,,,,,,,,,,,
0,1,1,713,Vernon,48 Hockanum Blvd,,Vernon,CT,06066,David Bombria ,,,,Christopher Lutgens,860/870-9803,,chris.lutgens@mascocs.com,,860/870-9803,,,,,,,,,,,,,,